Homework 4
…
head (glass,3)

# A tibble: 3 × 11
     X1    X2    X3    X4    X5    X6    X7    X8    X9   X10   X11
  <dbl> <dbl> <dbl> <dbl> <dbl> <dbl> <dbl> <dbl> <dbl> <dbl> <dbl>
1     1  1.52  13.6  4.49  1.1   71.8  0.06  8.75     0     0     1
2     2  1.52  13.9  3.6   1.36  72.7  0.48  7.83     0     0     1
3     3  1.52  13.5  3.55  1.54  73.0  0.39  7.78     0     0     1

We could see the data has already been imported as a tibble, and its columns have named X1 through X11. We could use the mutate function to change its column names into meaningful names and then print the tibble.

glass_rename <- glass |> mutate (Id = X1, RI = X2, Na = X3, Mg = X4, Al = X5, Si = X6, K = X7, Ca = X8, Ba = X9, Fe = X10, TypeofGlass = X11, .keep = "none")
print (glass_rename)

# A tibble: 214 × 11
      Id    RI    Na    Mg    Al    Si     K    Ca    Ba    Fe TypeofGlass
   <dbl> <dbl> <dbl> <dbl> <dbl> <dbl> <dbl> <dbl> <dbl> <dbl>       <dbl>
 1     1  1.52  13.6  4.49  1.1   71.8  0.06  8.75     0  0              1
 2     2  1.52  13.9  3.6   1.36  72.7  0.48  7.83     0  0              1
 3     3  1.52  13.5  3.55  1.54  73.0  0.39  7.78     0  0              1
 4     4  1.52  13.2  3.69  1.29  72.6  0.57  8.22     0  0              1
 5     5  1.52  13.3  3.62  1.24  73.1  0.55  8.07     0  0              1
 6     6  1.52  12.8  3.61  1.62  73.0  0.64  8.07     0  0.26           1
 7     7  1.52  13.3  3.6   1.14  73.1  0.58  8.17     0  0              1
 8     8  1.52  13.2  3.61  1.05  73.2  0.57  8.24     0  0              1
 9     9  1.52  14.0  3.58  1.37  72.1  0.56  8.3      0  0              1
10    10  1.52  13    3.6   1.36  73.0  0.57  8.4      0  0.11           1
# ℹ 204 more rows

Then we look at the value of the last variable: TypeofGlass. They are numeric but in factor they are factors with each number representing a different type of glass product. In addition, we wanted only to keep observations where Fe variable is less than 0.2 and the Type of Glass is either “tableware” or “headlamps”.

glass_rename_new <- glass_rename |> mutate (TypeofGlass = ifelse(TypeofGlass == 1, "building_windows_float_processed",
                                                                 ifelse (TypeofGlass == 2, "building_windows_non_float_processed",
                                                                         ifelse (TypeofGlass ==3, "vehicle_windows_float_processed",
                                                                                 ifelse (TypeofGlass == 4, "vehicle_windows_non_float_processed",
                                                                                         ifelse (TypeofGlass == 5, "containers",
                                                                                                 ifelse (TypeofGlass == 6, "tableware", "headlamps"))))))) |>  filter (Fe < 0.2 , TypeofGlass %in% c ("tableware", "headlamps"))
print (glass_rename_new)

# A tibble: 38 × 11
      Id    RI    Na    Mg    Al    Si     K    Ca    Ba    Fe TypeofGlass
   <dbl> <dbl> <dbl> <dbl> <dbl> <dbl> <dbl> <dbl> <dbl> <dbl> <chr>      
 1   177  1.52  14    2.39  1.56  72.4  0     9.57  0        0 tableware  
 2   178  1.52  13.8  2.41  1.19  72.8  0     9.77  0        0 tableware  
 3   179  1.52  14.5  2.24  1.62  72.4  0     9.26  0        0 tableware  
 4   180  1.52  14.1  2.19  1.66  72.7  0     9.32  0        0 tableware  
 5   181  1.51  14.4  1.74  1.54  74.6  0     7.59  0        0 tableware  
 6   182  1.52  15.0  0.78  1.74  72.5  0     9.95  0        0 tableware  
 7   183  1.52  14.2  0     2.09  72.7  0    10.9   0        0 tableware  
 8   184  1.52  14.6  0     0.56  73.5  0    11.2   0        0 tableware  
 9   185  1.51  17.4  0     0.34  75.4  0     6.65  0        0 tableware  
10   186  1.51  13.7  3.2   1.81  72.8  1.76  5.43  1.19     0 headlamps  
# ℹ 28 more rows
…
The data reading is successful. Now add the column names. Previously I used mutate function, which feels curbumsome. This time try the colnames () function.

colnames (yeast918) <- c ("seq_name", "mcg", "gvh", "alm", "mit", "erl", "pox", "vac", "nuc", "class")
yeast918

# A tibble: 1,484 × 10
   seq_name     mcg   gvh   alm   mit   erl   pox   vac   nuc class
   <chr>      <dbl> <dbl> <dbl> <dbl> <dbl> <dbl> <dbl> <dbl> <chr>
 1 ADT1_YEAST  0.58  0.61  0.47  0.13   0.5   0    0.48  0.22 MIT  
 2 ADT2_YEAST  0.43  0.67  0.48  0.27   0.5   0    0.53  0.22 MIT  
 3 ADT3_YEAST  0.64  0.62  0.49  0.15   0.5   0    0.53  0.22 MIT  
 4 AAR2_YEAST  0.58  0.44  0.57  0.13   0.5   0    0.54  0.22 NUC  
 5 AATM_YEAST  0.42  0.44  0.48  0.54   0.5   0    0.48  0.22 MIT  
 6 AATC_YEAST  0.51  0.4   0.56  0.17   0.5   0.5  0.49  0.22 CYT  
 7 ABC1_YEAST  0.5   0.54  0.48  0.65   0.5   0    0.53  0.22 MIT  
 8 BAF1_YEAST  0.48  0.45  0.59  0.2    0.5   0    0.58  0.34 NUC  
 9 ABF2_YEAST  0.55  0.5   0.66  0.36   0.5   0    0.49  0.22 MIT  
10 ABP1_YEAST  0.4   0.39  0.6   0.15   0.5   0    0.58  0.3  CYT  
# ℹ 1,474 more rows
…
Looks like we already got the mean value for each column, grouped by class.

Task 3: Combining Excel and Delimited Data

white wine data

Data import

Since I already downloaded the data in the data folder under my working directory of R, I will import it into R and print out the tibble.

library (readxl)
wine918 <- read_excel ("data/white-wine.xlsx")
wine918

# A tibble: 4,898 × 12
   `fixed acidity` `volatile acidity` `citric acid` `residual sugar` chlorides
             <dbl>              <dbl>         <dbl>            <dbl>     <dbl>
 1               7               0.27          0.36             20.7     0.045
 2              63               0.3           0.34              1.6     0.049
 3              81               0.28          0.4               6.9     0.05 
 4              72               0.23          0.32              8.5     0.058
 5              72               0.23          0.32              8.5     0.058
 6              81               0.28          0.4               6.9     0.05 
 7              62               0.32          0.16              7       0.045
 8               7               0.27          0.36             20.7     0.045
 9              63               0.3           0.34              1.6     0.049
10              81               0.22          0.43              1.5     0.044
# ℹ 4,888 more rows
# ℹ 7 more variables: `free sulfur dioxide` <dbl>,
#   `total sulfur dioxide` <dbl>, density <dbl>, pH <dbl>, sulphates <dbl>,
#   alcohol <dbl>, quality <dbl>
…
The 2nd excel sheet only contains the variable names in a format of a tibble. Then we use the function colname to rename the column of the wine data.

colnames(wine918) <- wine918_2$Variables
wine918

# A tibble: 4,898 × 12
   fixed_acidity volatile_acidity citric_acid residual_sugar chlorides
           <dbl>            <dbl>       <dbl>          <dbl>     <dbl>
 1             7             0.27        0.36           20.7     0.045
 2            63             0.3         0.34            1.6     0.049
 3            81             0.28        0.4             6.9     0.05 
 4            72             0.23        0.32            8.5     0.058
 5            72             0.23        0.32            8.5     0.058
 6            81             0.28        0.4             6.9     0.05 
 7            62             0.32        0.16            7       0.045
 8             7             0.27        0.36           20.7     0.045
 9            63             0.3         0.34            1.6     0.049
10            81             0.22        0.43            1.5     0.044
# ℹ 4,888 more rows
# ℹ 7 more variables: free_sulfur_dioxide <dbl>, total_sulfur_dioxide <dbl>,
#   density <dbl>, pH <dbl>, sulphates <dbl>, alcohol <dbl>, quality <dbl>
…
colnames(redwine918) <- wine918_2$Variables
redwine918 <- redwine918 |> mutate (wine_type = "red")

Data combine: totalwine!

Since the white wine and red wine data have the same data structure and the same variables, let’s combine them!

totalwine918 <- dplyr::bind_rows(wine918_3, redwine918)

Now we are ready for some data manipulations!!

totalwine_919 <- totalwine918 |> filter (quality >6.5, alcohol < 132) |> arrange (desc (quality)) |> select (contains ("acid"), alcohol, wine_type, quality) |> group_by(quality) |> mutate (alcoholmean = mean (alcohol), alcoholsd = sd (alcohol))
totalwine_919

# A tibble: 1,206 × 8
# Groups:   quality [3]
   fixed_acidity volatile_acidity citric_acid alcohol wine_type quality
           <dbl>            <dbl>       <dbl>   <dbl> <chr>       <dbl>
 1            91             0.27        0.45     104 white           9
 2            66             0.36        0.29     124 white           9
 3            74             0.24        0.36     125 white           9
 4            69             0.36        0.34     127 white           9
 5            71             0.26        0.49     129 white           9
 6            62             0.66        0.48     128 white           8
 7            62             0.66        0.48     128 white           8
 8            68             0.26        0.42     105 white           8
 9            67             0.23        0.31     107 white           8
10            67             0.23        0.31     107 white           8
# ℹ 1,196 more rows
# ℹ 2 more variables: alcoholmean <dbl>, alcoholsd <dbl>
